…
``` r
sport <- read_csv(
  "sport.csv", col_types = 
  cols(
    home_score = col_integer(),
    away_score = col_integer(),
    sport = col_character()
  )
)

sport
```

    ## # A tibble: 41,423 x 3
    ##    home_score away_score sport   
    ##         <int>      <int> <chr>   
    ##  1         13         10 football
    ##  2         20         34 football
    ##  3         45         27 football
    ##  4         21         34 football
    ##  5          7         24 football
    ##  6         14         12 football
    ##  7          7         12 football
    ##  8         10         38 football
    ##  9         38         24 football
    ## 10         19          7 football
    ## # ... with 41,413 more rows
…
